<?xml version="1.0" encoding="iso-8859-1"?>
<!-- Generator: Adobe Illustrator 19.0.0, SVG Export Plug-In . SVG Version: 6.00 Build 0)  -->
<svg version="1.1" id="Layer_1" xmlns="http://www.w3.org/2000/svg" xmlns:xlink="http://www.w3.org/1999/xlink" x="0px"
     y="0px"
     viewBox="0 0 512 512" style="enable-background:new 0 0 512 512;" xml:space="preserve">
<rect style="fill:#73AF00;" width="512" height="512"/>
    <g>
	<path style="fill:#F5F5F5;" d="M76.854,191.733c1.039,6.657,5.063,8.747,8.562,8.475c4.126-0.32,7.745-4.093,7.745-8.077v-22.848
		c0-1.144,0.931-2.077,2.077-2.077s2.077,0.933,2.077,2.077v22.946c0,2.759,1.363,5.331,3.649,6.876
		c1.396,0.945,3.02,1.432,4.657,1.432c1.043,0,2.089-0.199,3.087-0.596l2.076-0.83c0.191,19.179-0.975,36.035-0.997,36.344
		c-0.162,2.288,1.56,4.276,3.848,4.438c0.101,0.008,0.201,0.012,0.3,0.012c2.16,0,3.984-1.671,4.14-3.858
		c0.097-1.351,1.377-19.81,0.993-40.25l1.255-0.502c1.101-0.438,2.337-0.385,3.396,0.142c4.576,2.28,10.081,1.392,13.698-2.223
		l0.748-0.746c3.357-3.363,4.511-8.248,3.008-12.755l-3.538-10.613c1.913,0.576,4.014-0.272,4.937-2.114
		c1.026-2.053,0.195-4.548-1.858-5.574l-8.309-4.154c-1.503-0.755-3.306-0.523-4.58,0.576c-1.27,1.103-1.751,2.86-1.219,4.454
		l6.684,20.053c0.501,1.501,0.116,3.132-1.002,4.252l-0.746,0.746c-1.083,1.083-2.732,1.347-4.112,0.665
		c-2.693-1.345-5.757-1.597-8.633-0.864c-0.584-13.334-2.02-26.612-5.079-35.79c-0.724-2.174-3.073-3.355-5.256-2.625
		c-2.177,0.722-3.353,3.075-2.627,5.254c2.993,8.977,4.298,22.657,4.759,36.259l-4.972,1.989v-22.946
		c0-5.728-4.659-10.386-10.386-10.386s-10.386,4.657-10.386,10.386v20.11l-4.237-20.934c-0.452-2.252-2.641-3.72-4.895-3.25
		c-2.25,0.458-3.704,2.649-3.248,4.897L76.854,191.733z"/>
        <path style="fill:#F5F5F5;" d="M84.852,156.82c2.294,0,4.154-1.858,4.154-4.154v-4.154c0-2.296-1.86-4.154-4.154-4.154
		s-4.154,1.858-4.154,4.154v4.154C80.698,154.961,82.558,156.82,84.852,156.82z"/>
        <path style="fill:#F5F5F5;" d="M126.395,152.665h4.154c2.294,0,4.154-1.858,4.154-4.154s-1.86-4.154-4.154-4.154h-4.154
		c-2.294,0-4.154,1.858-4.154,4.154C122.24,150.807,124.1,152.665,126.395,152.665z"/>
        <path style="fill:#F5F5F5;" d="M99.331,207.263L78.56,219.726c-1.968,1.181-2.605,3.732-1.424,5.7
		c0.779,1.298,2.154,2.016,3.566,2.016c0.728,0,1.465-0.191,2.134-0.592l20.771-12.463c1.968-1.181,2.605-3.732,1.424-5.7
		S101.301,206.082,99.331,207.263z"/>
        <path style="fill:#F5F5F5;" d="M155.338,214.611l0.097-0.066c0.349,1.404,0.947,2.763,1.917,3.903
		c1.688,1.988,4.219,2.986,7.079,2.751c4.057-0.296,6.816-2.15,8.641-4.544c0.278,0.191,0.57,0.365,0.876,0.519
		c2.245,1.132,4.842,1.047,7.315-0.235c6.278-3.233,7.631-10.714,7.44-14.625c-0.112-2.28-2.051-3.891-4.325-3.935
		c-2.282,0.097-4.057,2.032-3.976,4.312c0.002,0.053,0.095,4.982-2.919,6.812c-0.491-0.686-1.075-2.227-1.294-3.501
		c-0.351-2.138-2.314-3.627-4.428-3.456c-2.154,0.17-3.818,1.98-3.826,4.142c-0.002,0.604-0.136,5.935-4.252,6.381
		c-0.479-0.653-0.487-3.404-0.016-5.436c0.398-1.667-0.272-3.408-1.682-4.381c-1.414-0.978-3.278-0.978-4.696-0.016l-2.319,1.577
		c-1.101-24.091-3.637-52.165-3.669-52.523c-0.207-2.28-2.215-3.98-4.513-3.761c-2.286,0.207-3.97,2.227-3.763,4.515
		c0.036,0.384,2.97,32.864,3.875,57.669c-0.212,0.202-0.431,0.423-0.639,0.616c-1.643-4.142-4.899-6.751-9.093-7.148
		c-5.919-0.523-12.333,3.505-14.631,9.258c-1.982,4.949-0.734,9.814,3.177,12.39c2.811,1.854,7.055,2.438,12.39,0.568
		c-1.302,4.576-3.674,9.217-6.757,12.808c-2.761,3.217-7.371,6.929-13.272,6.763c-3.434-0.134-6.073-1.258-8.067-3.44
		c-4.809-5.254-4.396-14.763-4.392-14.864c0.12-2.288-1.633-4.239-3.919-4.365c-2.302-0.243-4.252,1.627-4.377,3.919
		c-0.028,0.527-0.631,13.023,6.523,20.881c3.521,3.874,8.201,5.947,13.907,6.171c0.278,0.012,0.556,0.016,0.836,0.016
		c6.949,0,13.692-3.408,19.063-9.668c5.052-5.883,8.483-13.874,9.513-21.293c-0.014,14.211-8.577,30.24-19.933,37.301
		c-4.822,2.994-12.339,5.696-20.808,1.521c-10.438-5.152-9.195-17.084-9.14-17.57c0.286-2.276-1.331-4.353-3.607-4.637
		c-2.266-0.276-4.355,1.327-4.637,3.607c-0.093,0.742-2.089,18.256,13.708,26.049c4.057,2.004,8.3,2.998,12.576,2.998
		c5.493,0,11.037-1.643,16.292-4.913c13.824-8.592,23.859-27.262,23.859-44.39C155.474,220.613,155.424,217.687,155.338,214.611z
		 M130.289,218.894c-0.742-0.491-0.162-2.061-0.037-2.373c0.874-2.191,3.611-4.085,5.797-4.085c0.112,0,0.225,0.004,0.335,0.016
		c0.531,0.049,1.941,0.183,2.548,3.319c0.065,0.333,0.12,0.673,0.162,1.022C134.464,219.511,131.36,219.596,130.289,218.894z"/>
        <path style="fill:#F5F5F5;" d="M86.949,257.102c-1.968-1.156-4.511-0.495-5.68,1.473c-0.191,0.32-0.444,0.669-0.702,0.986
		c-0.045-0.105-0.089-0.219-0.134-0.341c-1.732-4.621-0.499-11.741,0.124-14.094c0.586-2.215-0.732-4.487-2.947-5.079
		c-2.211-0.568-4.485,0.722-5.079,2.937c-0.302,1.124-2.856,11.209,0.122,19.153c1.907,5.079,4.834,6.361,6.956,6.536
		c0.189,0.016,0.375,0.024,0.56,0.024c4.473,0,7.448-4.507,8.276-5.935C89.593,260.781,88.921,258.262,86.949,257.102z"/>
        <path style="fill:#F5F5F5;" d="M163.612,181.745c0.899,0,1.803-0.288,2.564-0.888l20.944-16.443
		c0.289-0.227,0.474-0.524,0.685-0.804c3.016-1.819,5.057-5.095,5.057-8.868c0-5.728-4.659-10.386-10.386-10.386
		s-10.386,4.657-10.386,10.386c0,3.205,1.489,6.038,3.777,7.945l-14.824,11.638c-1.803,1.416-2.118,4.028-0.702,5.83
		C161.162,181.201,162.381,181.745,163.612,181.745z M182.477,152.665c1.146,0,2.077,0.933,2.077,2.077s-0.931,2.077-2.077,2.077
		s-2.077-0.933-2.077-2.077S181.331,152.665,182.477,152.665z"/>
        <path style="fill:#F5F5F5;" d="M177.56,177.806c-2.189-0.73-4.532,0.45-5.256,2.625c-0.444,1.331-2.452,8.183,1.619,12.252
		c1.58,1.582,3.657,2.373,6.207,2.369c1.704,0,3.619-0.349,5.738-1.059c2.177-0.722,3.353-3.075,2.627-5.254
		c-0.726-2.174-3.075-3.359-5.256-2.625c-2.321,0.771-3.302,0.645-3.392,0.726c-0.245-0.617-0.083-2.471,0.343-3.797
		C180.907,180.873,179.73,178.528,177.56,177.806z"/>
        <path style="fill:#F5F5F5;" d="M225.105,160.633c0.389,0.114,0.781,0.166,1.166,0.166c1.799,0,3.456-1.176,3.986-2.99l2.424-8.309
		c0.643-2.203-0.623-4.511-2.824-5.152c-2.209-0.637-4.509,0.621-5.152,2.824l-2.424,8.308
		C221.638,157.684,222.904,159.992,225.105,160.633z"/>
        <path style="fill:#F5F5F5;" d="M200.891,160.146c0.659,0.385,1.381,0.568,2.093,0.568c1.428,0,2.817-0.734,3.59-2.057
		c1.158-1.98,0.491-4.527-1.489-5.684c-0.836-0.487-0.722-1.862-0.692-2.134c0.124-1.091,0.775-2.422,1.907-2.775
		c2.191-0.682,3.414-3.01,2.732-5.201c-0.686-2.195-3.01-3.408-5.203-2.734c-4.142,1.29-7.16,5.124-7.692,9.765
		C195.645,154.215,197.467,158.142,200.891,160.146z"/>
        <path style="fill:#F5F5F5;" d="M167.937,227.442c-2.294,0-4.154,1.858-4.154,4.154c0,2.028,1.452,3.716,3.375,4.081
		c0.219,0.32,0.779,1.42,0.779,4.227c0,2.296,1.86,4.154,4.154,4.154s4.154-1.858,4.154-4.154
		C176.245,227.584,168.276,227.442,167.937,227.442z"/>
        <path style="fill:#F5F5F5;" d="M238.415,210.241c0.521,0.085,1.041,0.126,1.562,0.126c3.264,0,6.562-1.647,9.828-4.913
		c1.623-1.623,1.623-4.252,0-5.874c-1.623-1.623-4.252-1.623-5.874,0c-2.485,2.487-3.822,2.54-4.164,2.463
		c-0.793-0.114-1.511-1.148-1.671-1.432c-1.043-2.02-3.513-2.828-5.548-1.809c-2.053,1.026-2.884,3.521-1.858,5.574
		C230.946,204.89,233.346,209.417,238.415,210.241z"/>
        <path style="fill:#F5F5F5;" d="M309.029,181.047c-0.026-0.065-0.051-0.126-0.071-0.183c-0.736-2.158-3.089-3.331-5.244-2.596
		c-2.179,0.722-3.355,3.075-2.629,5.254c0.325,0.974,2.174,5.858,6.759,6.475c0.306,0.041,0.611,0.061,0.913,0.061
		c2.878,0,5.578-1.862,8.035-5.546c1.272-1.907,0.757-4.487-1.152-5.761c-1.911-1.27-4.491-0.759-5.761,1.152
		C309.551,180.394,309.267,180.767,309.029,181.047z"/>
        <path style="fill:#F5F5F5;" d="M300.873,256.521c0-17.716-0.779-34.335-1.86-48.896c5.899,10.23,11.205,20.568,14.586,29.586
		c0.627,1.667,2.209,2.694,3.891,2.694c0.485,0,0.978-0.085,1.458-0.264c2.148-0.807,3.237-3.201,2.432-5.351
		c-5.258-14.018-14.709-30.713-24.024-45.532c-2.271-22.378-4.813-36.582-4.859-36.835c-0.41-2.26-2.568-3.785-4.83-3.343
		c-2.258,0.41-3.755,2.572-3.345,4.828c0.033,0.181,1.342,7.497,2.907,19.812c-3.191-4.736-6.157-9.009-8.645-12.526l0.203,0.065
		c2.189,0.73,4.53-0.45,5.256-2.625c0.726-2.179-0.45-4.532-2.627-5.254l-12.463-4.154c-1.728-0.584-3.625,0.032-4.684,1.509
		c-0.283,0.394-0.477,0.826-0.607,1.273c-2.487-1.839-5.676-3.333-8.671-2.08c-1.811,0.751-3.97,2.641-3.97,7.392
		c0,3.647,1.392,7.59,2.866,11.769c2.446,6.929,3.978,12.025,1.387,14.455c-1.432,1.343-2.862,1.85-4.258,1.497
		c-2.562-0.649-5.097-4.061-6.787-9.128c-0.073-0.22-0.227-0.379-0.331-0.578c0.874-6.435,0.493-14.188-1.267-22.985
		c-0.448-2.252-2.631-3.716-4.889-3.258c-2.25,0.45-3.708,2.637-3.258,4.889c2.712,13.566,1.899,24.633-2.177,29.603
		c-1.576,1.923-3.55,2.815-6.213,2.815c-0.842,0-1.416-0.268-1.988-0.925c-3.278-3.777-3.264-15.964-2.207-23.416
		c0.168-1.189-0.189-2.398-0.978-3.306c-0.789-0.909-1.933-1.432-3.136-1.432c-7.148,0-9.858,8.13-12.25,15.303
		c-1.049,3.152-3.004,9.014-4.367,9.623c-2.515,0-4.14-7.384-4.154-12.467c-0.006-2.292-1.864-4.146-4.154-4.146
		c0,0-0.004,0-0.006,0c-2.292,0-4.148,1.858-4.148,4.15c0,9.582,3.264,20.771,12.463,20.771c6.85,0,9.625-7.465,11.948-14.402
		c0.404,5.517,1.649,11.234,4.712,14.763c2.152,2.483,5.01,3.793,8.266,3.793c5.128,0,9.497-2.024,12.637-5.854
		c0.568-0.693,1.059-1.489,1.543-2.293c2.413,3.43,5.371,5.69,8.705,6.532c0.978,0.247,1.962,0.373,2.935,0.373
		c3.207,0,6.341-1.323,9.047-3.866c0.563-0.529,0.959-1.107,1.387-1.676c1.016,0.29,2.046,0.463,3.069,0.463
		c3.365,0,6.605-1.355,8.615-2.645c1.923-1.233,2.479-3.781,1.258-5.712c-1.223-1.927-3.783-2.503-5.72-1.294
		c-0.035,0.017-2.81,1.611-4.703,1.238c0.005-4.554-1.643-9.391-3.147-13.652c-0.856-2.426-1.734-4.913-2.148-6.945
		c0.343,0.288,0.677,0.588,0.976,0.88c1.619,1.623,4.25,1.623,5.872,0c0.268-0.268,0.424-0.595,0.603-0.909
		c4.306,5.932,13.163,18.398,22.273,32.768c1.739,17.662,3.266,40.195,3.266,64.906c0,2.296,1.86,4.154,4.154,4.154
		S300.873,258.818,300.873,256.521z"/>
        <path style="fill:#F5F5F5;" d="M305.027,165.128c0,2.296,1.86,4.154,4.154,4.154s4.154-1.858,4.154-4.154
		c0-4.889-3.826-12.787-4.592-14.321c-1.026-2.049-3.519-2.876-5.574-1.858c-2.053,1.026-2.884,3.521-1.858,5.574
		C302.81,157.521,305.027,162.962,305.027,165.128z"/>
        <path style="fill:#F5F5F5;" d="M286.124,256.976c-2.037-1.039-4.54-0.215-5.576,1.83c-0.446,0.872-1.138,1.842-1.722,2.467
		c-0.185-1.651,0.256-4.949,1.093-7.684c0.558-1.826-0.199-3.797-1.834-4.779c-1.629-0.986-3.728-0.73-5.075,0.621l-8.309,8.309
		c-1.623,1.623-1.623,4.252,0,5.874s4.252,1.623,5.874,0l0.211-0.211c0.359,1.667,1.047,3.189,2.223,4.365
		c1.558,1.558,3.44,2.381,5.398,2.381c0.379,0,0.761-0.032,1.142-0.093c4.706-0.763,7.635-5.951,8.422-7.521
		C288.994,260.485,288.167,258.006,286.124,256.976z"/>
        <path style="fill:#F5F5F5;" d="M284.516,223.547h-29.279c0.26-1.035,0.527-2.02,0.799-2.957
		c11.676-2.426,18.615-6.195,20.656-11.225c0.706-1.744,1.442-5.27-1.562-9.323c-2.708-3.651-6.532-5.29-10.501-4.479
		c-5.903,1.197-11.163,7.558-14.937,17.741c-11.727,2.008-19.235,6.217-23.986,10.372c-1.686-17.023-8.295-27.136-8.615-27.618
		c-1.274-1.911-3.854-2.426-5.761-1.152c-1.909,1.274-2.424,3.85-1.152,5.761c0.075,0.114,7.611,11.639,7.611,30.93
		c0,18.962-15.12,33.234-24.925,33.234c-4.665,0-6.706-5.545-7.604-10.232c9.601-6.729,18.072-14.515,19.943-21.995
		c2.531-10.122-0.655-17.583-2.763-22.52c-0.099-0.227-0.203-0.471-0.308-0.722c0.089,0.081,0.174,0.166,0.26,0.247
		c1.619,1.623,4.25,1.623,5.872,0c1.623-1.623,1.623-4.252,0-5.874c-2.428-2.43-7.144-6.248-11.43-4.454
		c-1.811,0.751-3.97,2.641-3.97,7.392c0,2.146,0.897,4.243,1.935,6.678c1.87,4.377,4.197,9.826,2.343,17.242
		c-1.097,4.388-6.487,9.712-13.598,14.997c-0.762-0.911-1.864-1.524-3.143-1.524h-0.006c-2.292,0.004-4.148,1.858-4.148,4.15
		c0,0.747,0.032,1.547,0.081,2.366c-8.89,5.758-18.951,11.087-26.727,14.624c-2.087,0.949-3.01,3.412-2.061,5.501
		c0.696,1.529,2.205,2.434,3.783,2.434c0.576,0,1.16-0.118,1.716-0.373c2.336-1.062,13.423-6.227,24.811-13.286
		c2.097,7.122,6.542,13.659,15.013,13.659c9.966,0,21.272-8.149,27.796-20.316c0.787,1.391,1.693,2.723,2.772,3.967
		c10.457,12.057,30.881,12.195,31.745,12.195c2.237,0,4.071-1.769,4.152-4.004c0.079-2.235-1.625-4.134-3.854-4.292
		c-0.032-0.004-3.343-0.369-5.185-2.519c-1.112-1.298-1.556-3.083-1.359-5.457c0.426-5.12,16.939-8.945,31.494-9.173
		c1.734-0.028,3.27-1.128,3.852-2.763l4.154-11.684c0.452-1.27,0.258-2.686-0.521-3.785
		C287.132,224.204,285.864,223.547,284.516,223.547z M266.28,203.709c0.079-0.016,0.185-0.041,0.316-0.041
		c0.398,0,1.024,0.195,1.86,1.323c0.158,0.211,0.663,0.933,0.536,1.25c-0.477,1.176-3.345,3.12-9.321,4.88
		C262.3,205.993,264.87,203.993,266.28,203.709z M241.192,258.319c-4.221-1.371-8.521-3.546-11.499-6.99
		c-3.272-3.785-4.481-8.572-3.688-14.629c0.12-0.318,0.391-0.946,0.866-1.761c5.85-0.536,21.478,1.77,22.561,6.246
		c-4.821,2.461-8.371,5.921-8.782,10.839C240.446,254.489,240.697,256.578,241.192,258.319z"/>
        <path style="fill:#F5F5F5;" d="M329.74,163.814l-4.154-12.463c-0.669-2.004-2.749-3.201-4.809-2.747
		c-2.071,0.442-3.477,2.369-3.266,4.475c2.866,28.666,8.288,84.57,8.288,90.98c0,5.757-10.24,17.092-26.784,25.364
		c-2.053,1.026-2.884,3.521-1.858,5.574c0.728,1.456,2.195,2.296,3.72,2.296c0.623,0,1.258-0.142,1.854-0.438
		c15.112-7.558,31.376-21.043,31.376-32.796c0-6.138-4.246-50.301-6.678-75.109C329.401,168.11,330.429,165.883,329.74,163.814z"/>
        <path style="fill:#F5F5F5;" d="M364.404,201.299c0.799,0.799,1.862,1.217,2.939,1.217c0.702,0,1.41-0.179,2.053-0.544
		c1.625-0.925,2.432-2.824,1.972-4.637c-0.744-2.921-0.992-6.572-0.598-8.065c2.081,0.065,4.012-1.416,4.319-3.562
		c0.325-2.272-1.254-4.377-3.523-4.702c-2.746-0.373-5.158,0.434-6.844,2.308c-1.091,1.217-1.74,2.779-2.093,4.459l-4.811-4.811
		c-1.623-1.623-4.252-1.623-5.874,0c-1.623,1.623-1.623,4.252,0,5.874L364.404,201.299z"/>
        <path style="fill:#F5F5F5;" d="M373.749,205.632l-15.578,11.165c-1.864,1.335-2.294,3.931-0.957,5.797
		c0.811,1.132,2.087,1.732,3.381,1.732c0.838,0,1.684-0.252,2.416-0.779l15.578-11.165c1.864-1.335,2.294-3.931,0.957-5.797
		C378.207,204.719,375.607,204.285,373.749,205.632z"/>
        <path style="fill:#F5F5F5;" d="M372.369,221.255c-1.306,1.684-1.12,4.053,0.363,5.509c0.178,0.3,0.988,1.891,0.842,5.98
		c-0.081,2.296,1.712,4.219,4.004,4.3c0.051,0.004,0.101,0.004,0.15,0.004c2.227,0,4.069-1.765,4.15-4.004
		c0.302-8.479-2.473-11.578-3.68-12.515C376.392,219.113,373.777,219.446,372.369,221.255z"/>
        <path style="fill:#F5F5F5;" d="M408.624,251.848c2.294,0,4.154-1.858,4.154-4.154c0-6.13-0.315-12.972-0.83-20.091
		c4.119,6.75,7.541,12.973,9.735,18.091c0.673,1.578,2.207,2.519,3.82,2.519c0.546,0,1.101-0.105,1.635-0.337
		c2.108-0.905,3.085-3.347,2.181-5.452c-3.803-8.876-10.911-20.633-19.006-32.771c-1.63-15.248-3.758-30.188-5.412-40.906
		c0.88,0.089,1.793-0.126,2.594-0.645c1.312-0.841,1.928-2.3,1.839-3.753c0.107,0.408,0.221,0.818,0.459,1.193
		c0.028,0.041,2.698,4.45,1.513,10.171c-0.465,2.243,0.98,4.442,3.227,4.909c0.284,0.057,0.568,0.085,0.846,0.085
		c1.929,0,3.657-1.351,4.065-3.314c1.876-9.075-2.456-16.021-2.641-16.313c-1.233-1.931-3.801-2.499-5.736-1.274
		c-1.317,0.84-1.94,2.301-1.855,3.756c-0.108-0.411-0.226-0.824-0.468-1.201l-7.01-10.905c-1.071-1.663-3.166-2.337-5.006-1.623
		c-1.844,0.722-2.923,2.641-2.58,4.588c0.058,0.327,3.233,18.557,6.046,40.529c-3.185-4.498-6.37-8.895-9.458-13.091
		c-0.502-6.285-1.005-12.096-1.441-16.901c0.229-0.069,0.454-0.158,0.675-0.268c2.053-1.026,2.884-3.521,1.858-5.574l-4.154-8.309
		c-0.897-1.793-2.943-2.686-4.87-2.134c-1.925,0.56-3.179,2.41-2.98,4.406c0.496,4.958,1.011,10.446,1.518,16.211
		c-2.628-3.464-5.059-6.634-7.139-9.318c0.406-0.349,0.753-0.783,1.008-1.294c1.026-2.053,0.195-4.548-1.858-5.574l-8.309-4.154
		c-1.742-0.868-3.858-0.414-5.089,1.103c-1.225,1.517-1.231,3.684-0.012,5.209c0.224,0.279,10.453,13.101,22.688,29.651
		c2.122,27.448,3.535,56,1.539,61.986c-0.365,1.095-1.002,2.385-1.6,2.43c-2.511,0.349-8.503-5.266-11.513-11.282
		c-1.734-3.465-4.229-3.826-5.564-3.765c-4.465,0.276-6.207,5.189-9.373,14.106c-2.27,6.39-5.089,14.333-8.256,17.583
		c-1.715-2.096-3.933-9.129-5.166-16.356c0.579,1.598,2.074,2.753,3.872,2.753c2.294,0,4.154-1.858,4.154-4.154
		c0-6.195-4.333-53.376-6.753-79.235c2.02-0.811,3.083-3.071,2.385-5.164l-4.154-12.463c-0.667-2.004-2.718-3.185-4.801-2.751
		c-2.067,0.438-3.477,2.357-3.276,4.459c2.823,29.636,8.117,86.878,8.282,94.778c-0.01-0.071-0.025-0.141-0.035-0.212
		c-0.323-2.272-2.442-3.83-4.7-3.525c-2.272,0.329-3.848,2.43-3.523,4.702c1.213,8.491,4.312,23.092,11.453,25.469
		c0.564,0.191,1.323,0.361,2.213,0.361c1.637,0,3.718-0.58,5.846-2.71c4.525-4.523,7.586-13.148,10.288-20.755
		c0.611-1.72,1.333-3.757,2.014-5.501c3.811,5.566,10.461,12.495,17.197,11.952c2.369-0.17,6.678-1.444,8.893-8.089
		c2.209-6.627,1.336-29.739-0.153-51.865c3.5,4.906,7.003,9.928,10.346,14.89c1.296,12.44,2.223,24.904,2.223,35.141
		C404.469,249.99,406.329,251.848,408.624,251.848z"/>
        <path style="fill:#F5F5F5;" d="M440.15,229.998c-2.943-21.923-7.043-47.319-9.639-62.906c1.172,0.288,2.45,0.053,3.481-0.738
		c1.826-1.392,2.174-4,0.783-5.822l-7.53-9.866c-1.162-1.517-3.211-2.053-4.966-1.286s-2.757,2.633-2.43,4.519
		c0.075,0.426,7.483,43.072,12.065,77.202c1.751,13.043-0.805,24.698-6.84,31.173c-3.878,4.158-9.018,6.041-15.238,5.68
		c-2.284-0.122-4.264,1.598-4.408,3.887c-0.144,2.288,1.594,4.26,3.884,4.406c0.702,0.045,1.394,0.065,2.079,0.065
		c7.834,0,14.633-2.872,19.759-8.373C438.979,259.54,442.259,245.71,440.15,229.998z"/>
        <path style="fill:#F5F5F5;" d="M394.449,257.382c-1.527,1.659-1.41,4.272,0.205,5.838c0.225,0.219,0.495,0.649,0.497,0.86
		c0.002,0.118-0.166,0.467-0.629,0.929c-1.623,1.623-1.623,4.252,0,5.874c0.811,0.811,1.874,1.217,2.937,1.217
		s2.126-0.406,2.937-1.217c2.635-2.633,3.118-5.306,3.059-7.087c-0.128-3.834-2.738-6.308-3.26-6.767
		C398.5,255.552,395.974,255.73,394.449,257.382z"/>
        <path style="fill:#F5F5F5;" d="M379.804,348.486h-4.154h-24.926v-4.154c0-2.296-1.86-4.154-4.154-4.154s-4.154,1.858-4.154,4.154
		v4.154H122.24c8.308,8.309,24.925,12.463,37.388,12.463c8.938,0,120.432,0,182.787,0v8.309c0,2.296,1.86,4.154,4.154,4.154h33.234
		c6.872,0,12.463-5.59,12.463-12.463C392.266,354.077,386.676,348.486,379.804,348.486z M379.804,365.103h-29.08v-4.154
		c20.02,0,33.234,0,33.234,0l-0.745-2.236c0.432,0.655,0.745,1.394,0.745,2.236C383.958,363.241,382.094,365.103,379.804,365.103z"
        />
</g>
    <g>
</g>
    <g>
</g>
    <g>
</g>
    <g>
</g>
    <g>
</g>
    <g>
</g>
    <g>
</g>
    <g>
</g>
    <g>
</g>
    <g>
</g>
    <g>
</g>
    <g>
</g>
    <g>
</g>
    <g>
</g>
    <g>
</g>
</svg>
